<session jtag_chain="USB-Blaster [USB-0]" jtag_device="@1: EP2C35 (0x020B40DD)" sof_file="DE2_LCM_CCD.sof" top_level_entity="DE2_LCM_CCD">
  <display_tree gui_logging_enabled="0">
    <display_branch instance="auto_signaltap_0" signal_set="USE_GLOBAL_TEMP" trigger="USE_GLOBAL_TEMP"/>
  </display_tree>
  <instance compilation_mode="full" entity_name="sld_signaltap" is_auto_node="yes" is_expanded="true" name="auto_signaltap_0" source_file="sld_signaltap.vhd">
    <node_ip_info instance_id="0" mfg_id="110" node_id="0" version="6"/>
    <position_info>
      <single attribute="active tab" value="1"/>
      <single attribute="data horizontal scroll position" value="309"/>
      <single attribute="data vertical scroll position" value="0"/>
      <single attribute="setup horizontal scroll position" value="0"/>
      <single attribute="setup vertical scroll position" value="1"/>
      <single attribute="zoom level denominator" value="1"/>
      <single attribute="zoom level numerator" value="4"/>
      <single attribute="zoom offset denominator" value="1"/>
      <single attribute="zoom offset numerator" value="32512"/>
      <multi attribute="timebars" size="2" value="429,449"/>
    </position_info>
    <signal_set global_temp="1" name="signal_set: 2011/04/28 16:14:35  #0">
      <clock name="CLOCK_50" polarity="posedge" tap_mode="classic"/>
      <config ram_type="M4K" reserved_data_nodes="0" reserved_trigger_nodes="0" sample_depth="1024" trigger_in_enable="yes" trigger_in_pin="auto_stp_trigger_in_0" trigger_out_enable="yes" trigger_out_pin="auto_stp_trigger_out_0"/>
      <top_entity/>
      <signal_vec>
        <trigger_input_vec>
          <wire name="LCM_Controller:u1|LCM_DATA[0]" tap_mode="classic" type="combinatorial"/>
          <wire name="LCM_Controller:u1|LCM_DATA[1]" tap_mode="classic" type="combinatorial"/>
          <wire name="LCM_Controller:u1|LCM_DATA[2]" tap_mode="classic" type="combinatorial"/>
          <wire name="LCM_Controller:u1|LCM_DATA[3]" tap_mode="classic" type="combinatorial"/>
          <wire name="LCM_Controller:u1|LCM_DATA[4]" tap_mode="classic" type="combinatorial"/>
          <wire name="LCM_Controller:u1|LCM_DATA[5]" tap_mode="classic" type="combinatorial"/>
          <wire name="LCM_Controller:u1|LCM_DATA[6]" tap_mode="classic" type="combinatorial"/>
          <wire name="LCM_Controller:u1|LCM_DATA[7]" tap_mode="classic" type="combinatorial"/>
          <wire name="LCM_Controller:u1|iBlue[0]" tap_mode="classic" type="combinatorial"/>
          <wire name="LCM_Controller:u1|iBlue[1]" tap_mode="classic" type="combinatorial"/>
          <wire name="LCM_Controller:u1|iBlue[2]" tap_mode="classic" type="combinatorial"/>
          <wire name="LCM_Controller:u1|iBlue[3]" tap_mode="classic" type="combinatorial"/>
          <wire name="LCM_Controller:u1|iBlue[4]" tap_mode="classic" type="combinatorial"/>
          <wire name="LCM_Controller:u1|iBlue[5]" tap_mode="classic" type="combinatorial"/>
          <wire name="LCM_Controller:u1|iBlue[6]" tap_mode="classic" type="combinatorial"/>
          <wire name="LCM_Controller:u1|iBlue[7]" tap_mode="classic" type="combinatorial"/>
          <wire name="LCM_Controller:u1|iGreen[0]" tap_mode="classic" type="combinatorial"/>
          <wire name="LCM_Controller:u1|iGreen[1]" tap_mode="classic" type="combinatorial"/>
          <wire name="LCM_Controller:u1|iGreen[2]" tap_mode="classic" type="combinatorial"/>
          <wire name="LCM_Controller:u1|iGreen[3]" tap_mode="classic" type="combinatorial"/>
          <wire name="LCM_Controller:u1|iGreen[4]" tap_mode="classic" type="combinatorial"/>
          <wire name="LCM_Controller:u1|iGreen[5]" tap_mode="classic" type="combinatorial"/>
          <wire name="LCM_Controller:u1|iGreen[6]" tap_mode="classic" type="combinatorial"/>
          <wire name="LCM_Controller:u1|iGreen[7]" tap_mode="classic" type="combinatorial"/>
          <wire name="LCM_Controller:u1|iRed[0]" tap_mode="classic" type="combinatorial"/>
          <wire name="LCM_Controller:u1|iRed[1]" tap_mode="classic" type="combinatorial"/>
          <wire name="LCM_Controller:u1|iRed[2]" tap_mode="classic" type="combinatorial"/>
          <wire name="LCM_Controller:u1|iRed[3]" tap_mode="classic" type="combinatorial"/>
          <wire name="LCM_Controller:u1|iRed[4]" tap_mode="classic" type="combinatorial"/>
          <wire name="LCM_Controller:u1|iRed[5]" tap_mode="classic" type="combinatorial"/>
          <wire name="LCM_Controller:u1|iRed[6]" tap_mode="classic" type="combinatorial"/>
          <wire name="LCM_Controller:u1|iRed[7]" tap_mode="classic" type="combinatorial"/>
          <wire name="Sdram_Control_4Port:u6|RD1_DATA[0]" tap_mode="classic" type="combinatorial"/>
          <wire name="Sdram_Control_4Port:u6|RD1_DATA[10]" tap_mode="classic" type="combinatorial"/>
          <wire name="Sdram_Control_4Port:u6|RD1_DATA[11]" tap_mode="classic" type="combinatorial"/>
          <wire name="Sdram_Control_4Port:u6|RD1_DATA[12]" tap_mode="classic" type="combinatorial"/>
          <wire name="Sdram_Control_4Port:u6|RD1_DATA[13]" tap_mode="classic" type="combinatorial"/>
          <wire name="Sdram_Control_4Port:u6|RD1_DATA[14]" tap_mode="classic" type="combinatorial"/>
          <wire name="Sdram_Control_4Port:u6|RD1_DATA[15]" tap_mode="classic" type="combinatorial"/>
          <wire name="Sdram_Control_4Port:u6|RD1_DATA[1]" tap_mode="classic" type="combinatorial"/>
          <wire name="Sdram_Control_4Port:u6|RD1_DATA[2]" tap_mode="classic" type="combinatorial"/>
          <wire name="Sdram_Control_4Port:u6|RD1_DATA[3]" tap_mode="classic" type="combinatorial"/>
          <wire name="Sdram_Control_4Port:u6|RD1_DATA[4]" tap_mode="classic" type="combinatorial"/>
          <wire name="Sdram_Control_4Port:u6|RD1_DATA[5]" tap_mode="classic" type="combinatorial"/>
          <wire name="Sdram_Control_4Port:u6|RD1_DATA[6]" tap_mode="classic" type="combinatorial"/>
          <wire name="Sdram_Control_4Port:u6|RD1_DATA[7]" tap_mode="classic" type="combinatorial"/>
          <wire name="Sdram_Control_4Port:u6|RD1_DATA[8]" tap_mode="classic" type="combinatorial"/>
          <wire name="Sdram_Control_4Port:u6|RD1_DATA[9]" tap_mode="classic" type="combinatorial"/>
          <wire name="Sdram_Control_4Port:u6|RD2_DATA[0]" tap_mode="classic" type="combinatorial"/>
          <wire name="Sdram_Control_4Port:u6|RD2_DATA[10]" tap_mode="classic" type="combinatorial"/>
          <wire name="Sdram_Control_4Port:u6|RD2_DATA[11]" tap_mode="classic" type="combinatorial"/>
          <wire name="Sdram_Control_4Port:u6|RD2_DATA[12]" tap_mode="classic" type="combinatorial"/>
          <wire name="Sdram_Control_4Port:u6|RD2_DATA[13]" tap_mode="classic" type="combinatorial"/>
          <wire name="Sdram_Control_4Port:u6|RD2_DATA[14]" tap_mode="classic" type="combinatorial"/>
          <wire name="Sdram_Control_4Port:u6|RD2_DATA[15]" tap_mode="classic" type="combinatorial"/>
          <wire name="Sdram_Control_4Port:u6|RD2_DATA[1]" tap_mode="classic" type="combinatorial"/>
          <wire name="Sdram_Control_4Port:u6|RD2_DATA[2]" tap_mode="classic" type="combinatorial"/>
          <wire name="Sdram_Control_4Port:u6|RD2_DATA[3]" tap_mode="classic" type="combinatorial"/>
          <wire name="Sdram_Control_4Port:u6|RD2_DATA[4]" tap_mode="classic" type="combinatorial"/>
          <wire name="Sdram_Control_4Port:u6|RD2_DATA[5]" tap_mode="classic" type="combinatorial"/>
          <wire name="Sdram_Control_4Port:u6|RD2_DATA[6]" tap_mode="classic" type="combinatorial"/>
          <wire name="Sdram_Control_4Port:u6|RD2_DATA[7]" tap_mode="classic" type="combinatorial"/>
          <wire name="Sdram_Control_4Port:u6|RD2_DATA[8]" tap_mode="classic" type="combinatorial"/>
          <wire name="Sdram_Control_4Port:u6|RD2_DATA[9]" tap_mode="classic" type="combinatorial"/>
          <wire name="Sdram_Control_4Port:u6|WR1_DATA[0]" tap_mode="classic" type="combinatorial"/>
          <wire name="Sdram_Control_4Port:u6|WR1_DATA[10]" tap_mode="classic" type="combinatorial"/>
          <wire name="Sdram_Control_4Port:u6|WR1_DATA[11]" tap_mode="classic" type="combinatorial"/>
          <wire name="Sdram_Control_4Port:u6|WR1_DATA[12]" tap_mode="classic" type="combinatorial"/>
          <wire name="Sdram_Control_4Port:u6|WR1_DATA[13]" tap_mode="classic" type="combinatorial"/>
          <wire name="Sdram_Control_4Port:u6|WR1_DATA[14]" tap_mode="classic" type="combinatorial"/>
          <wire name="Sdram_Control_4Port:u6|WR1_DATA[15]" tap_mode="classic" type="combinatorial"/>
          <wire name="Sdram_Control_4Port:u6|WR1_DATA[1]" tap_mode="classic" type="combinatorial"/>
          <wire name="Sdram_Control_4Port:u6|WR1_DATA[2]" tap_mode="classic" type="combinatorial"/>
          <wire name="Sdram_Control_4Port:u6|WR1_DATA[3]" tap_mode="classic" type="combinatorial"/>
          <wire name="Sdram_Control_4Port:u6|WR1_DATA[4]" tap_mode="classic" type="combinatorial"/>
          <wire name="Sdram_Control_4Port:u6|WR1_DATA[5]" tap_mode="classic" type="combinatorial"/>
          <wire name="Sdram_Control_4Port:u6|WR1_DATA[6]" tap_mode="classic" type="combinatorial"/>
          <wire name="Sdram_Control_4Port:u6|WR1_DATA[7]" tap_mode="classic" type="combinatorial"/>
          <wire name="Sdram_Control_4Port:u6|WR1_DATA[8]" tap_mode="classic" type="combinatorial"/>
          <wire name="Sdram_Control_4Port:u6|WR1_DATA[9]" tap_mode="classic" type="combinatorial"/>
          <wire name="Sdram_Control_4Port:u6|WR2_DATA[0]" tap_mode="classic" type="combinatorial"/>
          <wire name="Sdram_Control_4Port:u6|WR2_DATA[10]" tap_mode="classic" type="combinatorial"/>
          <wire name="Sdram_Control_4Port:u6|WR2_DATA[11]" tap_mode="classic" type="combinatorial"/>
          <wire name="Sdram_Control_4Port:u6|WR2_DATA[12]" tap_mode="classic" type="combinatorial"/>
          <wire name="Sdram_Control_4Port:u6|WR2_DATA[13]" tap_mode="classic" type="combinatorial"/>
          <wire name="Sdram_Control_4Port:u6|WR2_DATA[14]" tap_mode="classic" type="combinatorial"/>
          <wire name="Sdram_Control_4Port:u6|WR2_DATA[15]" tap_mode="classic" type="combinatorial"/>
          <wire name="Sdram_Control_4Port:u6|WR2_DATA[1]" tap_mode="classic" type="combinatorial"/>
          <wire name="Sdram_Control_4Port:u6|WR2_DATA[2]" tap_mode="classic" type="combinatorial"/>
          <wire name="Sdram_Control_4Port:u6|WR2_DATA[3]" tap_mode="classic" type="combinatorial"/>
          <wire name="Sdram_Control_4Port:u6|WR2_DATA[4]" tap_mode="classic" type="combinatorial"/>
          <wire name="Sdram_Control_4Port:u6|WR2_DATA[5]" tap_mode="classic" type="combinatorial"/>
          <wire name="Sdram_Control_4Port:u6|WR2_DATA[6]" tap_mode="classic" type="combinatorial"/>
          <wire name="Sdram_Control_4Port:u6|WR2_DATA[7]" tap_mode="classic" type="combinatorial"/>
          <wire name="Sdram_Control_4Port:u6|WR2_DATA[8]" tap_mode="classic" type="combinatorial"/>
          <wire name="Sdram_Control_4Port:u6|WR2_DATA[9]" tap_mode="classic" type="combinatorial"/>
        </trigger_input_vec>
        <data_input_vec>
          <wire name="LCM_Controller:u1|LCM_DATA[0]" tap_mode="classic" type="combinatorial"/>
          <wire name="LCM_Controller:u1|LCM_DATA[1]" tap_mode="classic" type="combinatorial"/>
          <wire name="LCM_Controller:u1|LCM_DATA[2]" tap_mode="classic" type="combinatorial"/>
          <wire name="LCM_Controller:u1|LCM_DATA[3]" tap_mode="classic" type="combinatorial"/>
          <wire name="LCM_Controller:u1|LCM_DATA[4]" tap_mode="classic" type="combinatorial"/>
          <wire name="LCM_Controller:u1|LCM_DATA[5]" tap_mode="classic" type="combinatorial"/>
          <wire name="LCM_Controller:u1|LCM_DATA[6]" tap_mode="classic" type="combinatorial"/>
          <wire name="LCM_Controller:u1|LCM_DATA[7]" tap_mode="classic" type="combinatorial"/>
          <wire name="LCM_Controller:u1|iBlue[0]" tap_mode="classic" type="combinatorial"/>
          <wire name="LCM_Controller:u1|iBlue[1]" tap_mode="classic" type="combinatorial"/>
          <wire name="LCM_Controller:u1|iBlue[2]" tap_mode="classic" type="combinatorial"/>
          <wire name="LCM_Controller:u1|iBlue[3]" tap_mode="classic" type="combinatorial"/>
          <wire name="LCM_Controller:u1|iBlue[4]" tap_mode="classic" type="combinatorial"/>
          <wire name="LCM_Controller:u1|iBlue[5]" tap_mode="classic" type="combinatorial"/>
          <wire name="LCM_Controller:u1|iBlue[6]" tap_mode="classic" type="combinatorial"/>
          <wire name="LCM_Controller:u1|iBlue[7]" tap_mode="classic" type="combinatorial"/>
          <wire name="LCM_Controller:u1|iGreen[0]" tap_mode="classic" type="combinatorial"/>
          <wire name="LCM_Controller:u1|iGreen[1]" tap_mode="classic" type="combinatorial"/>
          <wire name="LCM_Controller:u1|iGreen[2]" tap_mode="classic" type="combinatorial"/>
          <wire name="LCM_Controller:u1|iGreen[3]" tap_mode="classic" type="combinatorial"/>
          <wire name="LCM_Controller:u1|iGreen[4]" tap_mode="classic" type="combinatorial"/>
          <wire name="LCM_Controller:u1|iGreen[5]" tap_mode="classic" type="combinatorial"/>
          <wire name="LCM_Controller:u1|iGreen[6]" tap_mode="classic" type="combinatorial"/>
          <wire name="LCM_Controller:u1|iGreen[7]" tap_mode="classic" type="combinatorial"/>
          <wire name="LCM_Controller:u1|iRed[0]" tap_mode="classic" type="combinatorial"/>
          <wire name="LCM_Controller:u1|iRed[1]" tap_mode="classic" type="combinatorial"/>
          <wire name="LCM_Controller:u1|iRed[2]" tap_mode="classic" type="combinatorial"/>
          <wire name="LCM_Controller:u1|iRed[3]" tap_mode="classic" type="combinatorial"/>
          <wire name="LCM_Controller:u1|iRed[4]" tap_mode="classic" type="combinatorial"/>
          <wire name="LCM_Controller:u1|iRed[5]" tap_mode="classic" type="combinatorial"/>
          <wire name="LCM_Controller:u1|iRed[6]" tap_mode="classic" type="combinatorial"/>
          <wire name="LCM_Controller:u1|iRed[7]" tap_mode="classic" type="combinatorial"/>
          <wire name="Sdram_Control_4Port:u6|RD1_DATA[0]" tap_mode="classic" type="combinatorial"/>
          <wire name="Sdram_Control_4Port:u6|RD1_DATA[10]" tap_mode="classic" type="combinatorial"/>
          <wire name="Sdram_Control_4Port:u6|RD1_DATA[11]" tap_mode="classic" type="combinatorial"/>
          <wire name="Sdram_Control_4Port:u6|RD1_DATA[12]" tap_mode="classic" type="combinatorial"/>
          <wire name="Sdram_Control_4Port:u6|RD1_DATA[13]" tap_mode="classic" type="combinatorial"/>
          <wire name="Sdram_Control_4Port:u6|RD1_DATA[14]" tap_mode="classic" type="combinatorial"/>
          <wire name="Sdram_Control_4Port:u6|RD1_DATA[15]" tap_mode="classic" type="combinatorial"/>
          <wire name="Sdram_Control_4Port:u6|RD1_DATA[1]" tap_mode="classic" type="combinatorial"/>
          <wire name="Sdram_Control_4Port:u6|RD1_DATA[2]" tap_mode="classic" type="combinatorial"/>
          <wire name="Sdram_Control_4Port:u6|RD1_DATA[3]" tap_mode="classic" type="combinatorial"/>
          <wire name="Sdram_Control_4Port:u6|RD1_DATA[4]" tap_mode="classic" type="combinatorial"/>
          <wire name="Sdram_Control_4Port:u6|RD1_DATA[5]" tap_mode="classic" type="combinatorial"/>
          <wire name="Sdram_Control_4Port:u6|RD1_DATA[6]" tap_mode="classic" type="combinatorial"/>
          <wire name="Sdram_Control_4Port:u6|RD1_DATA[7]" tap_mode="classic" type="combinatorial"/>
          <wire name="Sdram_Control_4Port:u6|RD1_DATA[8]" tap_mode="classic" type="combinatorial"/>
          <wire name="Sdram_Control_4Port:u6|RD1_DATA[9]" tap_mode="classic" type="combinatorial"/>
          <wire name="Sdram_Control_4Port:u6|RD2_DATA[0]" tap_mode="classic" type="combinatorial"/>
          <wire name="Sdram_Control_4Port:u6|RD2_DATA[10]" tap_mode="classic" type="combinatorial"/>
          <wire name="Sdram_Control_4Port:u6|RD2_DATA[11]" tap_mode="classic" type="combinatorial"/>
          <wire name="Sdram_Control_4Port:u6|RD2_DATA[12]" tap_mode="classic" type="combinatorial"/>
          <wire name="Sdram_Control_4Port:u6|RD2_DATA[13]" tap_mode="classic" type="combinatorial"/>
          <wire name="Sdram_Control_4Port:u6|RD2_DATA[14]" tap_mode="classic" type="combinatorial"/>
          <wire name="Sdram_Control_4Port:u6|RD2_DATA[15]" tap_mode="classic" type="combinatorial"/>
          <wire name="Sdram_Control_4Port:u6|RD2_DATA[1]" tap_mode="classic" type="combinatorial"/>
          <wire name="Sdram_Control_4Port:u6|RD2_DATA[2]" tap_mode="classic" type="combinatorial"/>
          <wire name="Sdram_Control_4Port:u6|RD2_DATA[3]" tap_mode="classic" type="combinatorial"/>
          <wire name="Sdram_Control_4Port:u6|RD2_DATA[4]" tap_mode="classic" type="combinatorial"/>
          <wire name="Sdram_Control_4Port:u6|RD2_DATA[5]" tap_mode="classic" type="combinatorial"/>
          <wire name="Sdram_Control_4Port:u6|RD2_DATA[6]" tap_mode="classic" type="combinatorial"/>
          <wire name="Sdram_Control_4Port:u6|RD2_DATA[7]" tap_mode="classic" type="combinatorial"/>
          <wire name="Sdram_Control_4Port:u6|RD2_DATA[8]" tap_mode="classic" type="combinatorial"/>
          <wire name="Sdram_Control_4Port:u6|RD2_DATA[9]" tap_mode="classic" type="combinatorial"/>
          <wire name="Sdram_Control_4Port:u6|WR1_DATA[0]" tap_mode="classic" type="combinatorial"/>
          <wire name="Sdram_Control_4Port:u6|WR1_DATA[10]" tap_mode="classic" type="combinatorial"/>
          <wire name="Sdram_Control_4Port:u6|WR1_DATA[11]" tap_mode="classic" type="combinatorial"/>
          <wire name="Sdram_Control_4Port:u6|WR1_DATA[12]" tap_mode="classic" type="combinatorial"/>
          <wire name="Sdram_Control_4Port:u6|WR1_DATA[13]" tap_mode="classic" type="combinatorial"/>
          <wire name="Sdram_Control_4Port:u6|WR1_DATA[14]" tap_mode="classic" type="combinatorial"/>
          <wire name="Sdram_Control_4Port:u6|WR1_DATA[15]" tap_mode="classic" type="combinatorial"/>
          <wire name="Sdram_Control_4Port:u6|WR1_DATA[1]" tap_mode="classic" type="combinatorial"/>
          <wire name="Sdram_Control_4Port:u6|WR1_DATA[2]" tap_mode="classic" type="combinatorial"/>
          <wire name="Sdram_Control_4Port:u6|WR1_DATA[3]" tap_mode="classic" type="combinatorial"/>
          <wire name="Sdram_Control_4Port:u6|WR1_DATA[4]" tap_mode="classic" type="combinatorial"/>
          <wire name="Sdram_Control_4Port:u6|WR1_DATA[5]" tap_mode="classic" type="combinatorial"/>
          <wire name="Sdram_Control_4Port:u6|WR1_DATA[6]" tap_mode="classic" type="combinatorial"/>
          <wire name="Sdram_Control_4Port:u6|WR1_DATA[7]" tap_mode="classic" type="combinatorial"/>
          <wire name="Sdram_Control_4Port:u6|WR1_DATA[8]" tap_mode="classic" type="combinatorial"/>
          <wire name="Sdram_Control_4Port:u6|WR1_DATA[9]" tap_mode="classic" type="combinatorial"/>
          <wire name="Sdram_Control_4Port:u6|WR2_DATA[0]" tap_mode="classic" type="combinatorial"/>
          <wire name="Sdram_Control_4Port:u6|WR2_DATA[10]" tap_mode="classic" type="combinatorial"/>
          <wire name="Sdram_Control_4Port:u6|WR2_DATA[11]" tap_mode="classic" type="combinatorial"/>
          <wire name="Sdram_Control_4Port:u6|WR2_DATA[12]" tap_mode="classic" type="combinatorial"/>
          <wire name="Sdram_Control_4Port:u6|WR2_DATA[13]" tap_mode="classic" type="combinatorial"/>
          <wire name="Sdram_Control_4Port:u6|WR2_DATA[14]" tap_mode="classic" type="combinatorial"/>
          <wire name="Sdram_Control_4Port:u6|WR2_DATA[15]" tap_mode="classic" type="combinatorial"/>
          <wire name="Sdram_Control_4Port:u6|WR2_DATA[1]" tap_mode="classic" type="combinatorial"/>
          <wire name="Sdram_Control_4Port:u6|WR2_DATA[2]" tap_mode="classic" type="combinatorial"/>
          <wire name="Sdram_Control_4Port:u6|WR2_DATA[3]" tap_mode="classic" type="combinatorial"/>
          <wire name="Sdram_Control_4Port:u6|WR2_DATA[4]" tap_mode="classic" type="combinatorial"/>
          <wire name="Sdram_Control_4Port:u6|WR2_DATA[5]" tap_mode="classic" type="combinatorial"/>
          <wire name="Sdram_Control_4Port:u6|WR2_DATA[6]" tap_mode="classic" type="combinatorial"/>
          <wire name="Sdram_Control_4Port:u6|WR2_DATA[7]" tap_mode="classic" type="combinatorial"/>
          <wire name="Sdram_Control_4Port:u6|WR2_DATA[8]" tap_mode="classic" type="combinatorial"/>
          <wire name="Sdram_Control_4Port:u6|WR2_DATA[9]" tap_mode="classic" type="combinatorial"/>
        </data_input_vec>
      </signal_vec>
      <presentation>
        <data_view>
          <bus is_signal_inverted="no" link="all" name="LCM_Controller:u1|iRed" order="lsb_to_msb" radix="hex" state="collapse" type="combinatorial">
            <net is_signal_inverted="no" name="LCM_Controller:u1|iRed[0]"/>
            <net is_signal_inverted="no" name="LCM_Controller:u1|iRed[1]"/>
            <net is_signal_inverted="no" name="LCM_Controller:u1|iRed[2]"/>
            <net is_signal_inverted="no" name="LCM_Controller:u1|iRed[3]"/>
            <net is_signal_inverted="no" name="LCM_Controller:u1|iRed[4]"/>
            <net is_signal_inverted="no" name="LCM_Controller:u1|iRed[5]"/>
            <net is_signal_inverted="no" name="LCM_Controller:u1|iRed[6]"/>
            <net is_signal_inverted="no" name="LCM_Controller:u1|iRed[7]"/>
          </bus>
          <bus is_signal_inverted="no" link="all" name="LCM_Controller:u1|iBlue" order="lsb_to_msb" radix="hex" state="collapse" type="combinatorial">
            <net is_signal_inverted="no" name="LCM_Controller:u1|iBlue[0]"/>
            <net is_signal_inverted="no" name="LCM_Controller:u1|iBlue[1]"/>
            <net is_signal_inverted="no" name="LCM_Controller:u1|iBlue[2]"/>
            <net is_signal_inverted="no" name="LCM_Controller:u1|iBlue[3]"/>
            <net is_signal_inverted="no" name="LCM_Controller:u1|iBlue[4]"/>
            <net is_signal_inverted="no" name="LCM_Controller:u1|iBlue[5]"/>
            <net is_signal_inverted="no" name="LCM_Controller:u1|iBlue[6]"/>
            <net is_signal_inverted="no" name="LCM_Controller:u1|iBlue[7]"/>
          </bus>
          <bus is_signal_inverted="no" link="all" name="LCM_Controller:u1|iGreen" order="lsb_to_msb" radix="hex" state="collapse" type="combinatorial">
            <net is_signal_inverted="no" name="LCM_Controller:u1|iGreen[0]"/>
            <net is_signal_inverted="no" name="LCM_Controller:u1|iGreen[1]"/>
            <net is_signal_inverted="no" name="LCM_Controller:u1|iGreen[2]"/>
            <net is_signal_inverted="no" name="LCM_Controller:u1|iGreen[3]"/>
            <net is_signal_inverted="no" name="LCM_Controller:u1|iGreen[4]"/>
            <net is_signal_inverted="no" name="LCM_Controller:u1|iGreen[5]"/>
            <net is_signal_inverted="no" name="LCM_Controller:u1|iGreen[6]"/>
            <net is_signal_inverted="no" name="LCM_Controller:u1|iGreen[7]"/>
          </bus>
          <bus is_signal_inverted="no" link="all" name="LCM_Controller:u1|LCM_DATA[0..7]" order="lsb_to_msb" radix="hex" state="collapse" type="combinatorial">
            <net is_signal_inverted="no" name="LCM_Controller:u1|LCM_DATA[0]"/>
            <net is_signal_inverted="no" name="LCM_Controller:u1|LCM_DATA[1]"/>
            <net is_signal_inverted="no" name="LCM_Controller:u1|LCM_DATA[2]"/>
            <net is_signal_inverted="no" name="LCM_Controller:u1|LCM_DATA[3]"/>
            <net is_signal_inverted="no" name="LCM_Controller:u1|LCM_DATA[4]"/>
            <net is_signal_inverted="no" name="LCM_Controller:u1|LCM_DATA[5]"/>
            <net is_signal_inverted="no" name="LCM_Controller:u1|LCM_DATA[6]"/>
            <net is_signal_inverted="no" name="LCM_Controller:u1|LCM_DATA[7]"/>
          </bus>
          <bus is_signal_inverted="no" link="all" name="Sdram_Control_4Port:u6|WR1_DATA" order="lsb_to_msb" radix="hex" state="collapse" type="combinatorial">
            <net is_signal_inverted="no" name="Sdram_Control_4Port:u6|WR1_DATA[0]"/>
            <net is_signal_inverted="no" name="Sdram_Control_4Port:u6|WR1_DATA[1]"/>
            <net is_signal_inverted="no" name="Sdram_Control_4Port:u6|WR1_DATA[2]"/>
            <net is_signal_inverted="no" name="Sdram_Control_4Port:u6|WR1_DATA[3]"/>
            <net is_signal_inverted="no" name="Sdram_Control_4Port:u6|WR1_DATA[4]"/>
            <net is_signal_inverted="no" name="Sdram_Control_4Port:u6|WR1_DATA[5]"/>
            <net is_signal_inverted="no" name="Sdram_Control_4Port:u6|WR1_DATA[6]"/>
            <net is_signal_inverted="no" name="Sdram_Control_4Port:u6|WR1_DATA[7]"/>
            <net is_signal_inverted="no" name="Sdram_Control_4Port:u6|WR1_DATA[8]"/>
            <net is_signal_inverted="no" name="Sdram_Control_4Port:u6|WR1_DATA[9]"/>
            <net is_signal_inverted="no" name="Sdram_Control_4Port:u6|WR1_DATA[10]"/>
            <net is_signal_inverted="no" name="Sdram_Control_4Port:u6|WR1_DATA[11]"/>
            <net is_signal_inverted="no" name="Sdram_Control_4Port:u6|WR1_DATA[12]"/>
            <net is_signal_inverted="no" name="Sdram_Control_4Port:u6|WR1_DATA[13]"/>
            <net is_signal_inverted="no" name="Sdram_Control_4Port:u6|WR1_DATA[14]"/>
            <net is_signal_inverted="no" name="Sdram_Control_4Port:u6|WR1_DATA[15]"/>
          </bus>
          <bus is_signal_inverted="no" link="all" name="Sdram_Control_4Port:u6|WR2_DATA" order="lsb_to_msb" radix="hex" state="collapse" type="combinatorial">
            <net is_signal_inverted="no" name="Sdram_Control_4Port:u6|WR2_DATA[0]"/>
            <net is_signal_inverted="no" name="Sdram_Control_4Port:u6|WR2_DATA[1]"/>
            <net is_signal_inverted="no" name="Sdram_Control_4Port:u6|WR2_DATA[2]"/>
            <net is_signal_inverted="no" name="Sdram_Control_4Port:u6|WR2_DATA[3]"/>
            <net is_signal_inverted="no" name="Sdram_Control_4Port:u6|WR2_DATA[4]"/>
            <net is_signal_inverted="no" name="Sdram_Control_4Port:u6|WR2_DATA[5]"/>
            <net is_signal_inverted="no" name="Sdram_Control_4Port:u6|WR2_DATA[6]"/>
            <net is_signal_inverted="no" name="Sdram_Control_4Port:u6|WR2_DATA[7]"/>
            <net is_signal_inverted="no" name="Sdram_Control_4Port:u6|WR2_DATA[8]"/>
            <net is_signal_inverted="no" name="Sdram_Control_4Port:u6|WR2_DATA[9]"/>
            <net is_signal_inverted="no" name="Sdram_Control_4Port:u6|WR2_DATA[10]"/>
            <net is_signal_inverted="no" name="Sdram_Control_4Port:u6|WR2_DATA[11]"/>
            <net is_signal_inverted="no" name="Sdram_Control_4Port:u6|WR2_DATA[12]"/>
            <net is_signal_inverted="no" name="Sdram_Control_4Port:u6|WR2_DATA[13]"/>
            <net is_signal_inverted="no" name="Sdram_Control_4Port:u6|WR2_DATA[14]"/>
            <net is_signal_inverted="no" name="Sdram_Control_4Port:u6|WR2_DATA[15]"/>
          </bus>
          <bus is_signal_inverted="no" link="all" name="Sdram_Control_4Port:u6|RD1_DATA" order="lsb_to_msb" radix="hex" state="collapse" type="combinatorial">
            <net is_signal_inverted="no" name="Sdram_Control_4Port:u6|RD1_DATA[0]"/>
            <net is_signal_inverted="no" name="Sdram_Control_4Port:u6|RD1_DATA[1]"/>
            <net is_signal_inverted="no" name="Sdram_Control_4Port:u6|RD1_DATA[2]"/>
            <net is_signal_inverted="no" name="Sdram_Control_4Port:u6|RD1_DATA[3]"/>
            <net is_signal_inverted="no" name="Sdram_Control_4Port:u6|RD1_DATA[4]"/>
            <net is_signal_inverted="no" name="Sdram_Control_4Port:u6|RD1_DATA[5]"/>
            <net is_signal_inverted="no" name="Sdram_Control_4Port:u6|RD1_DATA[6]"/>
            <net is_signal_inverted="no" name="Sdram_Control_4Port:u6|RD1_DATA[7]"/>
            <net is_signal_inverted="no" name="Sdram_Control_4Port:u6|RD1_DATA[8]"/>
            <net is_signal_inverted="no" name="Sdram_Control_4Port:u6|RD1_DATA[9]"/>
            <net is_signal_inverted="no" name="Sdram_Control_4Port:u6|RD1_DATA[10]"/>
            <net is_signal_inverted="no" name="Sdram_Control_4Port:u6|RD1_DATA[11]"/>
            <net is_signal_inverted="no" name="Sdram_Control_4Port:u6|RD1_DATA[12]"/>
            <net is_signal_inverted="no" name="Sdram_Control_4Port:u6|RD1_DATA[13]"/>
            <net is_signal_inverted="no" name="Sdram_Control_4Port:u6|RD1_DATA[14]"/>
            <net is_signal_inverted="no" name="Sdram_Control_4Port:u6|RD1_DATA[15]"/>
          </bus>
          <bus is_signal_inverted="no" link="all" name="Sdram_Control_4Port:u6|RD2_DATA" order="lsb_to_msb" radix="hex" state="collapse" type="combinatorial">
            <net is_signal_inverted="no" name="Sdram_Control_4Port:u6|RD2_DATA[0]"/>
            <net is_signal_inverted="no" name="Sdram_Control_4Port:u6|RD2_DATA[1]"/>
            <net is_signal_inverted="no" name="Sdram_Control_4Port:u6|RD2_DATA[2]"/>
            <net is_signal_inverted="no" name="Sdram_Control_4Port:u6|RD2_DATA[3]"/>
            <net is_signal_inverted="no" name="Sdram_Control_4Port:u6|RD2_DATA[4]"/>
            <net is_signal_inverted="no" name="Sdram_Control_4Port:u6|RD2_DATA[5]"/>
            <net is_signal_inverted="no" name="Sdram_Control_4Port:u6|RD2_DATA[6]"/>
            <net is_signal_inverted="no" name="Sdram_Control_4Port:u6|RD2_DATA[7]"/>
            <net is_signal_inverted="no" name="Sdram_Control_4Port:u6|RD2_DATA[8]"/>
            <net is_signal_inverted="no" name="Sdram_Control_4Port:u6|RD2_DATA[9]"/>
            <net is_signal_inverted="no" name="Sdram_Control_4Port:u6|RD2_DATA[10]"/>
            <net is_signal_inverted="no" name="Sdram_Control_4Port:u6|RD2_DATA[11]"/>
            <net is_signal_inverted="no" name="Sdram_Control_4Port:u6|RD2_DATA[12]"/>
            <net is_signal_inverted="no" name="Sdram_Control_4Port:u6|RD2_DATA[13]"/>
            <net is_signal_inverted="no" name="Sdram_Control_4Port:u6|RD2_DATA[14]"/>
            <net is_signal_inverted="no" name="Sdram_Control_4Port:u6|RD2_DATA[15]"/>
          </bus>
        </data_view>
        <setup_view>
          <bus is_signal_inverted="no" link="all" name="Sdram_Control_4Port:u6|WR1_DATA" order="lsb_to_msb" radix="hex" state="collapse" type="combinatorial">
            <net is_signal_inverted="no" name="Sdram_Control_4Port:u6|WR1_DATA[0]"/>
            <net is_signal_inverted="no" name="Sdram_Control_4Port:u6|WR1_DATA[1]"/>
            <net is_signal_inverted="no" name="Sdram_Control_4Port:u6|WR1_DATA[2]"/>
            <net is_signal_inverted="no" name="Sdram_Control_4Port:u6|WR1_DATA[3]"/>
            <net is_signal_inverted="no" name="Sdram_Control_4Port:u6|WR1_DATA[4]"/>
            <net is_signal_inverted="no" name="Sdram_Control_4Port:u6|WR1_DATA[5]"/>
            <net is_signal_inverted="no" name="Sdram_Control_4Port:u6|WR1_DATA[6]"/>
            <net is_signal_inverted="no" name="Sdram_Control_4Port:u6|WR1_DATA[7]"/>
            <net is_signal_inverted="no" name="Sdram_Control_4Port:u6|WR1_DATA[8]"/>
            <net is_signal_inverted="no" name="Sdram_Control_4Port:u6|WR1_DATA[9]"/>
            <net is_signal_inverted="no" name="Sdram_Control_4Port:u6|WR1_DATA[10]"/>
            <net is_signal_inverted="no" name="Sdram_Control_4Port:u6|WR1_DATA[11]"/>
            <net is_signal_inverted="no" name="Sdram_Control_4Port:u6|WR1_DATA[12]"/>
            <net is_signal_inverted="no" name="Sdram_Control_4Port:u6|WR1_DATA[13]"/>
            <net is_signal_inverted="no" name="Sdram_Control_4Port:u6|WR1_DATA[14]"/>
            <net is_signal_inverted="no" name="Sdram_Control_4Port:u6|WR1_DATA[15]"/>
          </bus>
          <bus is_signal_inverted="no" link="all" name="Sdram_Control_4Port:u6|RD1_DATA" order="lsb_to_msb" radix="hex" state="collapse" type="combinatorial">
            <net is_signal_inverted="no" name="Sdram_Control_4Port:u6|RD1_DATA[0]"/>
            <net is_signal_inverted="no" name="Sdram_Control_4Port:u6|RD1_DATA[1]"/>
            <net is_signal_inverted="no" name="Sdram_Control_4Port:u6|RD1_DATA[2]"/>
            <net is_signal_inverted="no" name="Sdram_Control_4Port:u6|RD1_DATA[3]"/>
            <net is_signal_inverted="no" name="Sdram_Control_4Port:u6|RD1_DATA[4]"/>
            <net is_signal_inverted="no" name="Sdram_Control_4Port:u6|RD1_DATA[5]"/>
            <net is_signal_inverted="no" name="Sdram_Control_4Port:u6|RD1_DATA[6]"/>
            <net is_signal_inverted="no" name="Sdram_Control_4Port:u6|RD1_DATA[7]"/>
            <net is_signal_inverted="no" name="Sdram_Control_4Port:u6|RD1_DATA[8]"/>
            <net is_signal_inverted="no" name="Sdram_Control_4Port:u6|RD1_DATA[9]"/>
            <net is_signal_inverted="no" name="Sdram_Control_4Port:u6|RD1_DATA[10]"/>
            <net is_signal_inverted="no" name="Sdram_Control_4Port:u6|RD1_DATA[11]"/>
            <net is_signal_inverted="no" name="Sdram_Control_4Port:u6|RD1_DATA[12]"/>
            <net is_signal_inverted="no" name="Sdram_Control_4Port:u6|RD1_DATA[13]"/>
            <net is_signal_inverted="no" name="Sdram_Control_4Port:u6|RD1_DATA[14]"/>
            <net is_signal_inverted="no" name="Sdram_Control_4Port:u6|RD1_DATA[15]"/>
          </bus>
          <bus is_signal_inverted="no" link="all" name="Sdram_Control_4Port:u6|WR2_DATA" order="lsb_to_msb" radix="hex" state="collapse" type="combinatorial">
            <net is_signal_inverted="no" name="Sdram_Control_4Port:u6|WR2_DATA[0]"/>
            <net is_signal_inverted="no" name="Sdram_Control_4Port:u6|WR2_DATA[1]"/>
            <net is_signal_inverted="no" name="Sdram_Control_4Port:u6|WR2_DATA[2]"/>
            <net is_signal_inverted="no" name="Sdram_Control_4Port:u6|WR2_DATA[3]"/>
            <net is_signal_inverted="no" name="Sdram_Control_4Port:u6|WR2_DATA[4]"/>
            <net is_signal_inverted="no" name="Sdram_Control_4Port:u6|WR2_DATA[5]"/>
            <net is_signal_inverted="no" name="Sdram_Control_4Port:u6|WR2_DATA[6]"/>
            <net is_signal_inverted="no" name="Sdram_Control_4Port:u6|WR2_DATA[7]"/>
            <net is_signal_inverted="no" name="Sdram_Control_4Port:u6|WR2_DATA[8]"/>
            <net is_signal_inverted="no" name="Sdram_Control_4Port:u6|WR2_DATA[9]"/>
            <net is_signal_inverted="no" name="Sdram_Control_4Port:u6|WR2_DATA[10]"/>
            <net is_signal_inverted="no" name="Sdram_Control_4Port:u6|WR2_DATA[11]"/>
            <net is_signal_inverted="no" name="Sdram_Control_4Port:u6|WR2_DATA[12]"/>
            <net is_signal_inverted="no" name="Sdram_Control_4Port:u6|WR2_DATA[13]"/>
            <net is_signal_inverted="no" name="Sdram_Control_4Port:u6|WR2_DATA[14]"/>
            <net is_signal_inverted="no" name="Sdram_Control_4Port:u6|WR2_DATA[15]"/>
          </bus>
          <bus is_signal_inverted="no" link="all" name="Sdram_Control_4Port:u6|RD2_DATA" order="lsb_to_msb" radix="hex" state="collapse" type="combinatorial">
            <net is_signal_inverted="no" name="Sdram_Control_4Port:u6|RD2_DATA[0]"/>
            <net is_signal_inverted="no" name="Sdram_Control_4Port:u6|RD2_DATA[1]"/>
            <net is_signal_inverted="no" name="Sdram_Control_4Port:u6|RD2_DATA[2]"/>
            <net is_signal_inverted="no" name="Sdram_Control_4Port:u6|RD2_DATA[3]"/>
            <net is_signal_inverted="no" name="Sdram_Control_4Port:u6|RD2_DATA[4]"/>
            <net is_signal_inverted="no" name="Sdram_Control_4Port:u6|RD2_DATA[5]"/>
            <net is_signal_inverted="no" name="Sdram_Control_4Port:u6|RD2_DATA[6]"/>
            <net is_signal_inverted="no" name="Sdram_Control_4Port:u6|RD2_DATA[7]"/>
            <net is_signal_inverted="no" name="Sdram_Control_4Port:u6|RD2_DATA[8]"/>
            <net is_signal_inverted="no" name="Sdram_Control_4Port:u6|RD2_DATA[9]"/>
            <net is_signal_inverted="no" name="Sdram_Control_4Port:u6|RD2_DATA[10]"/>
            <net is_signal_inverted="no" name="Sdram_Control_4Port:u6|RD2_DATA[11]"/>
            <net is_signal_inverted="no" name="Sdram_Control_4Port:u6|RD2_DATA[12]"/>
            <net is_signal_inverted="no" name="Sdram_Control_4Port:u6|RD2_DATA[13]"/>
            <net is_signal_inverted="no" name="Sdram_Control_4Port:u6|RD2_DATA[14]"/>
            <net is_signal_inverted="no" name="Sdram_Control_4Port:u6|RD2_DATA[15]"/>
          </bus>
          <bus is_signal_inverted="no" link="all" name="LCM_Controller:u1|iBlue" order="lsb_to_msb" radix="hex" state="collapse" type="combinatorial">
            <net is_signal_inverted="no" name="LCM_Controller:u1|iBlue[0]"/>
            <net is_signal_inverted="no" name="LCM_Controller:u1|iBlue[1]"/>
            <net is_signal_inverted="no" name="LCM_Controller:u1|iBlue[2]"/>
            <net is_signal_inverted="no" name="LCM_Controller:u1|iBlue[3]"/>
            <net is_signal_inverted="no" name="LCM_Controller:u1|iBlue[4]"/>
            <net is_signal_inverted="no" name="LCM_Controller:u1|iBlue[5]"/>
            <net is_signal_inverted="no" name="LCM_Controller:u1|iBlue[6]"/>
            <net is_signal_inverted="no" name="LCM_Controller:u1|iBlue[7]"/>
          </bus>
          <bus is_signal_inverted="no" link="all" name="LCM_Controller:u1|iGreen" order="lsb_to_msb" radix="hex" state="collapse" type="combinatorial">
            <net is_signal_inverted="no" name="LCM_Controller:u1|iGreen[0]"/>
            <net is_signal_inverted="no" name="LCM_Controller:u1|iGreen[1]"/>
            <net is_signal_inverted="no" name="LCM_Controller:u1|iGreen[2]"/>
            <net is_signal_inverted="no" name="LCM_Controller:u1|iGreen[3]"/>
            <net is_signal_inverted="no" name="LCM_Controller:u1|iGreen[4]"/>
            <net is_signal_inverted="no" name="LCM_Controller:u1|iGreen[5]"/>
            <net is_signal_inverted="no" name="LCM_Controller:u1|iGreen[6]"/>
            <net is_signal_inverted="no" name="LCM_Controller:u1|iGreen[7]"/>
          </bus>
          <bus is_signal_inverted="no" link="all" name="LCM_Controller:u1|iRed" order="lsb_to_msb" radix="hex" state="collapse" type="combinatorial">
            <net is_signal_inverted="no" name="LCM_Controller:u1|iRed[0]"/>
            <net is_signal_inverted="no" name="LCM_Controller:u1|iRed[1]"/>
            <net is_signal_inverted="no" name="LCM_Controller:u1|iRed[2]"/>
            <net is_signal_inverted="no" name="LCM_Controller:u1|iRed[3]"/>
            <net is_signal_inverted="no" name="LCM_Controller:u1|iRed[4]"/>
            <net is_signal_inverted="no" name="LCM_Controller:u1|iRed[5]"/>
            <net is_signal_inverted="no" name="LCM_Controller:u1|iRed[6]"/>
            <net is_signal_inverted="no" name="LCM_Controller:u1|iRed[7]"/>
          </bus>
          <bus is_signal_inverted="no" link="all" name="LCM_Controller:u1|LCM_DATA[0..7]" order="lsb_to_msb" radix="hex" state="collapse" type="combinatorial">
            <net is_signal_inverted="no" name="LCM_Controller:u1|LCM_DATA[0]"/>
            <net is_signal_inverted="no" name="LCM_Controller:u1|LCM_DATA[1]"/>
            <net is_signal_inverted="no" name="LCM_Controller:u1|LCM_DATA[2]"/>
            <net is_signal_inverted="no" name="LCM_Controller:u1|LCM_DATA[3]"/>
            <net is_signal_inverted="no" name="LCM_Controller:u1|LCM_DATA[4]"/>
            <net is_signal_inverted="no" name="LCM_Controller:u1|LCM_DATA[5]"/>
            <net is_signal_inverted="no" name="LCM_Controller:u1|LCM_DATA[6]"/>
            <net is_signal_inverted="no" name="LCM_Controller:u1|LCM_DATA[7]"/>
          </bus>
        </setup_view>
      </presentation>
      <trigger global_temp="1" name="trigger: 2011/04/28 16:14:35  #1" position="pre" power_up_trigger_mode="false" segment_size="1" trigger_in="dont_care" trigger_out="active high" trigger_type="circular">
        <power_up_trigger position="pre" trigger_in="dont_care" trigger_out="active high"/>
        <events use_custom_flow_control="no">
          <level enabled="yes" name="condition1" type="basic">
            <power_up enabled="yes">
            </power_up>
            <op_node>
              <op_node left="397" top="144" type="Advanced Trigger Level Result"/>
            </op_node>
          </level>
        </events>
      </trigger>
    </signal_set>
  </instance>
  <mnemonics/>
  <static_plugin_mnemonics/>
  <embedded_sof_files>
  </embedded_sof_files>
  <global_info>
    <single attribute="active instance" value="0"/>
    <single attribute="lock mode" value="36110"/>
    <single attribute="sof manager hidden" value="0"/>
    <multi attribute="column width" size="18" value="34,34,223,74,68,70,88,100,101,101,101,101,101,101,101,101,107,78"/>
    <multi attribute="window position" size="9" value="1192,601,398,212,356,50,43,0,0"/>
  </global_info>
</session>
