-- begin_signature
-- I2C_AV_Config
-- end_signature
WIDTH=16;
DEPTH=64;

ADDRESS_RADIX=UNS;
DATA_RADIX=BIN;

CONTENT BEGIN
	63 :	0000000000000000;
	62 :	0000000000000000;
	61 :	0000000000000000;
	60 :	0000000000000000;
	59 :	0000000000000000;
	58 :	0000000000000000;
	57 :	0000000000000000;
	56 :	0000000000000000;
	55 :	0000000000000000;
	54 :	0000000000000000;
	53 :	0000000000000000;
	52 :	0000000000000000;
	51 :	0010011111011000;
	50 :	0000111000000101;
	49 :	0011000011010010;
	48 :	0010111111110100;
	47 :	0010111011101110;
	46 :	0010110111110010;
	45 :	0010110010001100;
	44 :	0010101100000000;
	43 :	0001000100000000;
	42 :	0000101000100000;
	41 :	0000101100000000;
	40 :	0000010000000000;
	39 :	0001000000000000;
	38 :	0000000001010000;
	37 :	0101000100000000;
	36 :	0101000000000000;
	35 :	1110011110000101;
	34 :	1110011000000011;
	33 :	1110010110000000;
	32 :	0011011110100000;
	31 :	0011001110000100;
	30 :	0011001010000001;
	29 :	0011000100010010;
	28 :	1110101000001111;
	27 :	1110010000111110;
	26 :	1101011111101010;
	25 :	1101010110100000;
	24 :	1101000001001000;
	23 :	0111110100000000;
	22 :	0111110010010011;
	21 :	0111011111000101;
	20 :	0101100011101101;
	19 :	0101001000011000;
	18 :	0101000000100000;
	17 :	0000111010000000;
	16 :	1100010010000000;
	15 :	1100001100000101;
	14 :	0101000000000100;
	13 :	0011101000010110;
	12 :	0001011101000001;
	11 :	0001010100000000;
	10 :	0001001000000001;
	9 :	0001000000000010;
	8 :	0000111000000001;
	7 :	0000110000000000;
	6 :	0000101000000110;
	5 :	0000100011111000;
	4 :	0000011001111011;
	3 :	0000010001111011;
	2 :	0000001000011010;
	1 :	0000000000011010;
	0 :	0000000000000000;
END;
